ModelSimProject/dump.vcd
$date
	Wed Nov 10 15:42:08 2021
$end
$version
	ModelSim Version 2020.1
$end
$timescale
	1ps
$end

$scope module top $end
$var reg 256 ! InstructDataOut [255:0] $end
$var reg 256 " MemDataOut [255:0] $end
$var reg 256 # ExeDataOut [255:0] $end
$var reg 256 $ MatrixDataOut [255:0] $end
$var reg 1 % nRead $end
$var reg 1 & nWrite $end
$var reg 1 ' nReset $end
$var reg 1 ( Clk $end
$var reg 16 ) address [15:0] $end
$upscope $end
$enddefinitions $end
#0
$dumpvars
bx !
bx "
bx #
bx $
x%
x&
1'
0(
bx )
$end
#5
1(
0'
b0 "
b0 #
1&
1%
#10
0(
1'
#15
1(
b1000000000000000 )
0%
#20
0(
#25
1(
b1000000100000000000000001 !
#30
0(
#35
1(
#40
0(
#45
1(
1%
#50
0(
#55
1(
#60
0(
#65
1(
b0 )
0%
#70
0(
#75
1(
b1000000000000001000000000000000110000000000000100000000000000010100000000000001100000000000000111000000000000100000000000000010010000000000001010000000000000101100000000000011000000000000001101000000000000111000000000000011110000000000010000 "
#80
0(
#85
1(
b1 )
#90
0(
#95
1(
b100000000000000001111100000000000111100000000000011101000000000001110000000000000110110000000000011010000000000001100100000000000110000000000000010111000000000001011000000000000101010000000000010100000000000001001100000000000100100000000000010001 "
#100
0(
#105
1(
1%
#110
0(
#115
1(
0&
b1000000000000001000000000000000110000000000000100000000000000010100000000000001100000000000000111000000000000100000000000000010010000000000001010000000000000101100000000000011000000000000001101000000000000111000000000000011110000000000010000 #
b10000000010000 )
#120
0(
#125
1(
b100000000000000001111100000000000111100000000000011101000000000001110000000000000110110000000000011010000000000001100100000000000110000000000000010111000000000001011000000000000101010000000000010100000000000001001100000000000100100000000000010001 #
b10000000010001 )
#130
0(
#135
1(
b10000000010011 )
1&
#140
0(
#145
1(
b10000000010010 )
0%
#150
0(
#155
1(
b100001000000000010000100000000001000010000000000100001000000000010000100000000001000010000000000100001000000000010000100000000001000010000000000100001000000000010000100000000001000010000000000100001000000000010000100000000001000010000000000100001 $
#160
0(
#165
1(
1%
#170
0(
#175
1(
b10 )
0&
b100001000000000010000100000000001000010000000000100001000000000010000100000000001000010000000000100001000000000010000100000000001000010000000000100001000000000010000100000000001000010000000000100001000000000010000100000000001000010000000000100001 #
#180
0(
#185
1(
1&
#190
0(
#195
1(
bx #
#200
0(
#205
1(
b1000000000000001 )
0%
#210
0(
#215
1(
b10000000110000000000000001 !
#220
0(
#225
1(
#230
0(
#235
1(
1%
#240
0(
#245
1(
#250
0(
#255
1(
b0 )
0%
#260
0(
#265
1(
b1000000000000001000000000000000110000000000000100000000000000010100000000000001100000000000000111000000000000100000000000000010010000000000001010000000000000101100000000000011000000000000001101000000000000111000000000000011110000000000010000 "
#270
0(
#275
1(
b1 )
#280
0(
#285
1(
b100000000000000001111100000000000111100000000000011101000000000001110000000000000110110000000000011010000000000001100100000000000110000000000000010111000000000001011000000000000101010000000000010100000000000001001100000000000100100000000000010001 "
#290
0(
#295
1(
1%
#300
0(
#305
1(
0&
b1000000000000001000000000000000110000000000000100000000000000010100000000000001100000000000000111000000000000100000000000000010010000000000001010000000000000101100000000000011000000000000001101000000000000111000000000000011110000000000010000 #
b10000000100000 )
#310
0(
#315
1(
b100000000000000001111100000000000111100000000000011101000000000001110000000000000110110000000000011010000000000001100100000000000110000000000000010111000000000001011000000000000101010000000000010100000000000001001100000000000100100000000000010001 #
b10000000100001 )
#320
0(
#325
1(
b10000000100011 )
1&
#330
0(
#335
1(
b10000000100010 )
0%
#340
0(
#345
1(
b1111111111100001111111111110001111111111111001011111111111100111111111111110100111111111111010111111111111101101111111111110111111111111111100011111111111110011111111111111010111111111111101111111111111111001111111111111101111111111111111011111111111111111 $
#350
0(
#355
1(
1%
#360
0(
#365
1(
b11 )
0&
b1111111111100001111111111110001111111111111001011111111111100111111111111110100111111111111010111111111111101101111111111110111111111111111100011111111111110011111111111111010111111111111101111111111111111001111111111111101111111111111111011111111111111111 #
#370
0(
#375
1(
1&
#380
0(
#385
1(
bx #
#390
0(
#395
1(
b1000000000000010 )
0%
#400
0(
#405
1(
b1000000000000000001 !
#410
0(
#415
1(
#420
0(
#425
1(
1%
#430
0(
#435
1(
#440
0(
#445
1(
b0 )
0%
#450
0(
#455
1(
b1000000000000001000000000000000110000000000000100000000000000010100000000000001100000000000000111000000000000100000000000000010010000000000001010000000000000101100000000000011000000000000001101000000000000111000000000000011110000000000010000 "
#460
0(
#465
1(
b1 )
#470
0(
#475
1(
b100000000000000001111100000000000111100000000000011101000000000001110000000000000110110000000000011010000000000001100100000000000110000000000000010111000000000001011000000000000101010000000000010100000000000001001100000000000100100000000000010001 "
#480
0(
#485
1(
1%
#490
0(
#495
1(
0&
b1000000000000001000000000000000110000000000000100000000000000010100000000000001100000000000000111000000000000100000000000000010010000000000001010000000000000101100000000000011000000000000001101000000000000111000000000000011110000000000010000 #
b10000000000000 )
#500
0(
#505
1(
b100000000000000001111100000000000111100000000000011101000000000001110000000000000110110000000000011010000000000001100100000000000110000000000000010111000000000001011000000000000101010000000000010100000000000001001100000000000100100000000000010001 #
b10000000000001 )
#510
0(
#515
1(
b10000000000011 )
1&
#520
0(
#525
1(
b10000000000010 )
0%
#530
0(
#535
1(
b11110000000000001110011000000000110111000000000011010010000000101001000000000010011101100000001001011100000000100100001000000100001100000000010000000110000000111101110000000011101100100000010111010000000001011001011000000101010111000000010100100010 $
#540
0(
#545
1(
1%
#550
0(
#555
1(
b100 )
0&
b11110000000000001110011000000000110111000000000011010010000000101001000000000010011101100000001001011100000000100100001000000100001100000000010000000110000000111101110000000011101100100000010111010000000001011001011000000101010111000000010100100010 #
#560
0(
#565
1(
1&
#570
0(
#575
1(
bx #
#580
0(
#585
1(
b1000000000000011 )
0%
#590
0(
#595
1(
b11000001010000000000000000 !
#600
0(
#605
1(
#610
0(
#615
1(
1%
#620
0(
#625
1(
#630
0(
#635
1(
b0 )
0%
#640
0(
#645
1(
b1000000000000001000000000000000110000000000000100000000000000010100000000000001100000000000000111000000000000100000000000000010010000000000001010000000000000101100000000000011000000000000001101000000000000111000000000000011110000000000010000 "
#650
0(
#655
1(
0&
b1000000000000001000000000000000110000000000000100000000000000010100000000000001100000000000000111000000000000100000000000000010010000000000001010000000000000101100000000000011000000000000001101000000000000111000000000000011110000000000010000 #
b10000000110000 )
#660
0(
#665
1(
#670
0(
#675
1(
b10000000110011 )
1&
#680
0(
#685
1(
b10000000110010 )
#690
0(
#695
1(
1%
b1000000000000010100000000000010010000000000001101000000000000001000000000000001100000000000001010000000000000111000000000000000110000000000000111000000000000101100000000000011110000000000000100000000000000100000000000000011000000000000010000 $
#700
0(
#705
1(
b101 )
0&
b11110000000000001110011000000000110111000000000011010010000000101001000000000010011101100000001001011100000000100100001000000100001100000000010000000110000000111101110000000011101100100000010111010000000001011001011000000101010111000000010100100010 #
#710
0(
#715
1(
#720
0(
#725
1(
1&
#730
0(
#735
1(
bx #
#740
0(
#745
1(
b1000000000000100 )
0%
#750
0(
#755
1(
b100000001010000001110000000 !
#760
0(
#765
1(
#770
0(
#775
1(
1%
