ModelSimProject/dump.vcd
$date
	Wed Nov 10 14:28:39 2021
$end
$version
	ModelSim Version 2020.1
$end
$timescale
	1ps
$end

$scope module top $end
$var reg 256 ! InstructDataOut [255:0] $end
$var reg 256 " MemDataOut [255:0] $end
$var reg 256 # ExeDataOut [255:0] $end
$var reg 256 $ MatrixDataOut [255:0] $end
$var reg 1 % nRead $end
$var reg 1 & nWrite $end
$var reg 1 ' nReset $end
$var reg 1 ( Clk $end
$var reg 16 ) address [15:0] $end
$upscope $end
$enddefinitions $end
#0
$dumpvars
bx !
bx "
bx #
bx $
x%
x&
1'
0(
bx )
$end
#5
1(
0'
b0 "
b0 #
1&
1%
#10
0(
1'
#15
1(
b1000000000000000 )
0%
#20
0(
#25
1(
b1000000100000000000000001 !
#30
0(
#35
1(
#40
0(
#45
1(
1%
#50
0(
#55
1(
#60
0(
#65
1(
b0 )
0%
#70
0(
#75
1(
b1000000000000001000000000000000110000000000000100000000000000010100000000000001100000000000000111000000000000100000000000000010010000000000001010000000000000101100000000000011000000000000001101000000000000111000000000000011110000000000010000 "
#80
0(
#85
1(
b1 )
#90
0(
#95
1(
b100000000000000001111100000000000111100000000000011101000000000001110000000000000110110000000000011010000000000001100100000000000110000000000000010111000000000001011000000000000101010000000000010100000000000001001100000000000100100000000000010001 "
#100
0(
#105
1(
1%
#110
0(
#115
1(
0&
b1000000000000001000000000000000110000000000000100000000000000010100000000000001100000000000000111000000000000100000000000000010010000000000001010000000000000101100000000000011000000000000001101000000000000111000000000000011110000000000010000 #
b10000000010000 )
#120
0(
#125
1(
b100000000000000001111100000000000111100000000000011101000000000001110000000000000110110000000000011010000000000001100100000000000110000000000000010111000000000001011000000000000101010000000000010100000000000001001100000000000100100000000000010001 #
b10000000010001 )
#130
0(
#135
1(
b10000000010011 )
1&
#140
0(
#145
1(
b10000000010010 )
0%
#150
0(
#155
1(
b100001000000000010000100000000001000010000000000100001000000000010000100000000001000010000000000100001000000000010000100000000001000010000000000100001000000000010000100000000001000010000000000100001000000000010000100000000001000010000000000100001 $
#160
0(
#165
1(
1%
#170
0(
#175
1(
b10 )
0&
b100001000000000010000100000000001000010000000000100001000000000010000100000000001000010000000000100001000000000010000100000000001000010000000000100001000000000010000100000000001000010000000000100001000000000010000100000000001000010000000000100001 #
#180
0(
#185
1(
1&
#190
0(
#195
1(
bx #
#200
0(
#205
1(
b1000000000000001 )
0%
#210
0(
#215
1(
b10000000110000000000000001 !
#220
0(
#225
1(
#230
0(
#235
1(
1%
#240
0(
#245
1(
#250
0(
#255
1(
b0 )
0%
#260
0(
#265
1(
b1000000000000001000000000000000110000000000000100000000000000010100000000000001100000000000000111000000000000100000000000000010010000000000001010000000000000101100000000000011000000000000001101000000000000111000000000000011110000000000010000 "
#270
0(
#275
1(
b1 )
#280
0(
#285
1(
b100000000000000001111100000000000111100000000000011101000000000001110000000000000110110000000000011010000000000001100100000000000110000000000000010111000000000001011000000000000101010000000000010100000000000001001100000000000100100000000000010001 "
#290
0(
#295
1(
1%
#300
0(
#305
1(
0&
b1000000000000001000000000000000110000000000000100000000000000010100000000000001100000000000000111000000000000100000000000000010010000000000001010000000000000101100000000000011000000000000001101000000000000111000000000000011110000000000010000 #
b10000000100000 )
#310
0(
#315
1(
b100000000000000001111100000000000111100000000000011101000000000001110000000000000110110000000000011010000000000001100100000000000110000000000000010111000000000001011000000000000101010000000000010100000000000001001100000000000100100000000000010001 #
b10000000100001 )
#320
0(
#325
1(
b10000000100011 )
1&
#330
0(
#335
1(
b10000000100010 )
0%
#340
0(
#345
1(
b111111111110000111111111111000111111111111100101111111111110011111111111111010011111111111101011111111111110110111111111111011111111111111110001111111111111001111111111111101011111111111110111111111111111100111111111111110111111111